module gitlab.com/booklog/booklog

// +heroku goVersion go1.17
go 1.17

require (
	github.com/dgrijalva/jwt-go v3.2.0+incompatible
	github.com/google/uuid v1.3.0
	github.com/gorilla/csrf v1.7.1
	github.com/gorilla/mux v1.8.0
	github.com/lib/pq v1.10.2
	github.com/mattn/go-sqlite3 v1.14.9
	github.com/stretchr/testify v1.7.0
	golang.org/x/crypto v0.0.0-20211215153901-e495a2d5b3d3
	gorm.io/driver/postgres v1.2.3
	gorm.io/driver/sqlite v1.2.6
	gorm.io/gorm v1.22.4
)

require (
	github.com/davecgh/go-spew v1.1.1 // indirect
	github.com/gorilla/securecookie v1.1.1 // indirect
	github.com/jackc/chunkreader/v2 v2.0.1 // indirect
	github.com/jackc/pgconn v1.10.1 // indirect
	github.com/jackc/pgio v1.0.0 // indirect
	github.com/jackc/pgpassfile v1.0.0 // indirect
	github.com/jackc/pgproto3/v2 v2.2.0 // indirect
	github.com/jackc/pgservicefile v0.0.0-20200714003250-2b9c44734f2b // indirect
	github.com/jackc/pgtype v1.9.0 // indirect
	github.com/jackc/pgx/v4 v4.14.0 // indirect
	github.com/jinzhu/inflection v1.0.0 // indirect
	github.com/jinzhu/now v1.1.3 // indirect
	github.com/pkg/errors v0.9.1 // indirect
	github.com/pmezard/go-difflib v1.0.0 // indirect
	golang.org/x/text v0.3.7 // indirect
	gopkg.in/yaml.v3 v3.0.0-20200313102051-9f266ea9e77c // indirect
)
